hw/fpga/sim/top/run/wave.vcd
$version Generated by VerilatedVcd $end
$date Sat Nov  9 16:33:05 2019
 $end
$timescale   1ns $end

 $scope module TOP $end
  $var wire  1 I! verilator_clk $end
  $var wire  1 J! verilator_rst $end
  $scope module tb $end
   $var wire 32 Q! SIM_DELAY [31:0] $end
   $var wire  4 R! SOME_PARAM [3:0] $end
   $var wire  1 I! clk $end
   $var wire  1 V! clk_16 $end
   $var wire  8 B gpio [7:0] $end
   $var wire  8 W! gpio_drive [7:0] $end
   $var wire 32 S! i [31:0] $end
   $var wire 32 T! j [31:0] $end
   $var wire 32 U! k [31:0] $end
   $var wire  1 q led $end
   $var wire  1 \ rst_n $end
   $var wire  1 p uart_rxd $end
   $var wire  1 p uart_txd $end
   $var wire  1 I! verilator_clk $end
   $var wire  1 J! verilator_rst $end
   $scope module top $end
    $var wire 32 Y! DATA_WIDTH [31:0] $end
    $var wire 32 Q! INFER [31:0] $end
    $var wire 32 X! PARAM1 [31:0] $end
    $var wire  1 I! clk $end
    $var wire 33 z count [32:0] $end
    $var wire  8 B gpio [7:0] $end
    $var wire  8 B gpio_in [7:0] $end
    $var wire  8 y gpio_oe [7:0] $end
    $var wire  8 x gpio_out [7:0] $end
    $var wire 13 U j1_code_addr [12:0] $end
    $var wire 16 8! j1_dout [15:0] $end
    $var wire 16 ] j1_insn [15:0] $end
    $var wire 16 J j1_io_din [15:0] $end
    $var wire  1 C j1_io_rd $end
    $var wire  1 D j1_io_wr $end
    $var wire 16 B! j1_mem_addr [15:0] $end
    $var wire  1 8 j1_mem_wr $end
    $var wire  1 q led $end
    $var wire  1 D! rst $end
    $var wire  6 G! rst_count [5:0] $end
    $var wire  1 \ rst_n $end
    $var wire  1 E! rst_n_1 $end
    $var wire  1 F! rst_n_2 $end
    $var wire  1 r uart_rx_clr_ovrflw $end
    $var wire  1 u uart_rx_d_valid $end
    $var wire  1 v uart_rx_overflow $end
    $var wire  1 Z! uart_rx_rd $end
    $var wire  8 s uart_rx_rdata [7:0] $end
    $var wire  1 t uart_rx_sfe $end
    $var wire  1 p uart_rxd $end
    $var wire  1 w uart_tx_tbr_valid $end
    $var wire  8 9! uart_tx_wdata [7:0] $end
    $var wire  1 Z! uart_tx_wr $end
    $var wire  1 p uart_txd $end
    $scope module csr1 $end
     $var wire 16 h! CSR_GPIO_IN [15:0] $end
     $var wire 16 i! CSR_GPIO_OE [15:0] $end
     $var wire 16 g! CSR_GPIO_OUT [15:0] $end
     $var wire 16 j! CSR_LED [15:0] $end
     $var wire 16 d! CSR_UART_RX_DATA [15:0] $end
     $var wire 16 e! CSR_UART_RX_DATA_VALID [15:0] $end
     $var wire 16 f! CSR_UART_RX_OVERFLOW [15:0] $end
     $var wire 16 b! CSR_UART_TX_DATA [15:0] $end
     $var wire 16 c! CSR_UART_TX_TBR_VALID [15:0] $end
     $var wire  1 I! clk $end
     $var wire  8 B gpio_in [7:0] $end
     $var wire  8 y gpio_oe [7:0] $end
     $var wire  8 x gpio_out [7:0] $end
     $var wire 16 8! j1_dout [15:0] $end
     $var wire 16 J j1_io_din [15:0] $end
     $var wire  1 C j1_io_rd $end
     $var wire  1 D j1_io_wr $end
     $var wire 16 B! j1_mem_addr [15:0] $end
     $var wire  1 } led $end
     $var wire  1 D! rst $end
     $var wire  1 r uart_rx_clr_ovrflw $end
     $var wire  1 u uart_rx_d_valid $end
     $var wire  1 v uart_rx_overflow $end
     $var wire  1 Z! uart_rx_rd $end
     $var wire  8 s uart_rx_rdata [7:0] $end
     $var wire  1 w uart_tx_tbr_valid $end
     $var wire  8 9! uart_tx_wdata [7:0] $end
     $var wire  1 Z! uart_tx_wr $end
    $upscope $end
    $scope module j1_prb $end
     $var wire 32 Y! WIDTH [31:0] $end
     $var wire  1 I! clk $end
     $var wire 13 U code_addr [12:0] $end
     $var wire 16 8! dout [15:0] $end
     $var wire  4 | dsp [3:0] $end
     $var wire  2 Y dspI [1:0] $end
     $var wire  4 V dspN [3:0] $end
     $var wire  1 X dstkW $end
     $var wire  1 _ func_T_N $end
     $var wire  1 ` func_T_R $end
     $var wire  1 c func_ior $end
     $var wire  1 b func_iow $end
     $var wire  1 a func_write $end
     $var wire 16 ] insn [15:0] $end
     $var wire 16 J io_din [15:0] $end
     $var wire  1 C io_rd $end
     $var wire  1 D io_wr $end
     $var wire  1 H is_alu $end
     $var wire 16 B! mem_addr [15:0] $end
     $var wire  1 8 mem_wr $end
     $var wire 17 Z minus [16:0] $end
     $var wire 13 K! pc [12:0] $end
     $var wire 13 U pcN [12:0] $end
     $var wire 13 L! pc_plus_1 [12:0] $end
     $var wire  1 F reboot $end
     $var wire  1 H! resetq $end
     $var wire  2 G rspI [1:0] $end
     $var wire 16 ^ rst0 [15:0] $end
     $var wire 16 M! rstkD [15:0] $end
     $var wire  1 E rstkW $end
     $var wire  1 K signedless $end
     $var wire 16 B! st0 [15:0] $end
     $var wire 16 W st0N [15:0] $end
     $var wire 16 8! st1 [15:0] $end
     $scope module dstack $end
      $var wire 32 \! BITS [31:0] $end
      $var wire 32 [! DEPTH [31:0] $end
      $var wire 32 Y! WIDTH [31:0] $end
      $var wire  1 I! clk $end
      $var wire  2 Y delta [1:0] $end
      $var wire 32 N! depth [31:0] $end
      $var wire 16 8! head [15:0] $end
      $var wire 16 L headN [15:0] $end
      $var wire  1 [ move $end
      $var wire 16 8! rd [15:0] $end
      $var wire 240 :! tail [239:0] $end
      $var wire 240 M tailN [239:0] $end
      $var wire 16 B! wd [15:0] $end
      $var wire  1 X we $end
     $upscope $end
     $scope module rstack $end
      $var wire 32 ^! BITS [31:0] $end
      $var wire 32 ]! DEPTH [31:0] $end
      $var wire 32 Y! WIDTH [31:0] $end
      $var wire  1 I! clk $end
      $var wire  2 G delta [1:0] $end
      $var wire 32 P! depth [31:0] $end
      $var wire 16 ^ head [15:0] $end
      $var wire 16 O! headN [15:0] $end
      $var wire  1 I move $end
      $var wire 16 ^ rd [15:0] $end
      $var wire 272 d tail [271:0] $end
      $var wire 272 9 tailN [271:0] $end
      $var wire 16 M! wd [15:0] $end
      $var wire  1 E we $end
     $upscope $end
    $upscope $end
    $scope module sram $end
     $var wire 32 `! ADDR_WIDTH [31:0] $end
     $var wire 32 _! DEPTH [31:0] $end
     $var wire 32 Q! INFER [31:0] $end
     $var wire 32 Y! WIDTH [31:0] $end
     $var wire 13 C! addr_a [12:0] $end
     $var wire 13 U addr_b [12:0] $end
     $var wire  1 I! clk_a $end
     $var wire  1 I! clk_b $end
     $var wire 13 m ram_addr_a [12:0] $end
     $var wire 16 ] ram_rdata_b [15:0] $end
     $var wire 16 7 rdata_a [15:0] $end
     $var wire 16 ] rdata_b [15:0] $end
     $var wire  1 a! rst $end
     $var wire 16 8! wdata_a [15:0] $end
     $var wire  1 8 write_en_a $end
    $upscope $end
    $scope module uart_rcvr_top $end
     $var wire  1 I! CLOCK $end
     $var wire  1 "! CO $end
     $var wire  4 %! ROM_addr [3:0] $end
     $var wire  1 Z! Rd_en $end
     $var wire  1 !! Rx_in $end
     $var wire  1 p Rx_raw $end
     $var wire  1 t SFE $end
     $var wire  1 r clr_ovrflw $end
     $var wire  1 u d_valid $end
     $var wire  1 ~ f_edge $end
     $var wire  1 #! load_buffer $end
     $var wire  1 $! load_counter $end
     $var wire  8 n load_value [7:0] $end
     $var wire  1 v overflow $end
     $var wire  1 D! reset $end
     $var wire  8 s rx_data_out [7:0] $end
     $var wire  1 &! shift $end
     $scope module Counter $end
      $var wire  1 I! CLOCK $end
      $var wire  1 "! CO $end
      $var wire  8 *! count [7:0] $end
      $var wire  1 $! load $end
      $var wire  8 n load_value [7:0] $end
      $var wire  1 D! reset $end
     $upscope $end
     $scope module FSM $end
      $var wire  1 I! CLOCK $end
      $var wire  1 "! CO $end
      $var wire  4 n! D0 [3:0] $end
      $var wire  4 o! D1 [3:0] $end
      $var wire  4 p! D2 [3:0] $end
      $var wire  4 q! D3 [3:0] $end
      $var wire  4 r! D4 [3:0] $end
      $var wire  4 s! D5 [3:0] $end
      $var wire  4 t! D6 [3:0] $end
      $var wire  4 u! D7 [3:0] $end
      $var wire  4 l! IDLE [3:0] $end
      $var wire  8 )! Out [7:0] $end
      $var wire  4 %! ROM_addr [3:0] $end
      $var wire  4 k! RST [3:0] $end
      $var wire  1 !! Rx $end
      $var wire  1 t SFE $end
      $var wire  4 m! START [3:0] $end
      $var wire  4 R! STOP [3:0] $end
      $var wire  1 ~ f_edge $end
      $var wire  1 #! load_buffer $end
      $var wire  1 $! load_counter $end
      $var wire  1 D! reset $end
      $var wire  1 &! shift $end
      $var wire  4 (! state_reg [3:0] $end
     $upscope $end
     $scope module ROM $end
      $var wire  1 I! CLOCK $end
      $var wire  4 %! addr [3:0] $end
      $var wire  8 n data_out [7:0] $end
      $var wire  8 # mem(0) [7:0] $end
      $var wire  8 $ mem(1) [7:0] $end
      $var wire  8 % mem(2) [7:0] $end
      $var wire  8 & mem(3) [7:0] $end
      $var wire  8 ' mem(4) [7:0] $end
      $var wire  8 ( mem(5) [7:0] $end
      $var wire  8 ) mem(6) [7:0] $end
      $var wire  8 * mem(7) [7:0] $end
      $var wire  8 + mem(8) [7:0] $end
      $var wire  8 , mem(9) [7:0] $end
     $upscope $end
     $scope module Rx_register $end
      $var wire  1 I! CLOCK $end
      $var wire  1 '! Rx_intermediate $end
      $var wire  1 !! Rx_out $end
      $var wire  1 p Rx_raw $end
      $var wire  1 ~ f_edge $end
      $var wire  1 D! reset $end
     $upscope $end
     $scope module Shft_reg $end
      $var wire  1 I! CLOCK $end
      $var wire  1 Z! Rd_en $end
      $var wire  1 !! Rx $end
      $var wire  8 +! buffer_reg [7:0] $end
      $var wire  1 r clr_ovrflw $end
      $var wire  1 u d_valid $end
      $var wire  1 #! load_buffer $end
      $var wire  1 v overflow $end
      $var wire  1 D! reset $end
      $var wire  8 s rx_data_out [7:0] $end
      $var wire  1 &! shift $end
     $upscope $end
    $upscope $end
    $scope module uart_tr_top $end
     $var wire  1 ,! CO $end
     $var wire  1 -! Clear_Valid $end
     $var wire  8 o Counter_Val [7:0] $end
     $var wire  8 9! Data_in [7:0] $end
     $var wire  1 1! LC $end
     $var wire  1 0! LoadSR $end
     $var wire  4 2! ROMaddr [3:0] $end
     $var wire  1 /! SetSR $end
     $var wire  1 .! Shift $end
     $var wire  1 w TBR_Valid $end
     $var wire  1 Z! TBR_en $end
     $var wire  1 p Tx $end
     $var wire  1 I! clk $end
     $var wire  1 D! reset $end
     $scope module Cntr $end
      $var wire  1 I! CLOCK $end
      $var wire  1 ,! CO $end
      $var wire  8 7! count [7:0] $end
      $var wire  1 1! load $end
      $var wire  8 o load_value [7:0] $end
      $var wire  1 D! reset $end
     $upscope $end
     $scope module FSM1 $end
      $var wire  1 ,! CO $end
      $var wire  1 -! Clear_Valid $end
      $var wire  4 n! D0 [3:0] $end
      $var wire  4 o! D1 [3:0] $end
      $var wire  4 p! D2 [3:0] $end
      $var wire  4 q! D3 [3:0] $end
      $var wire  4 r! D4 [3:0] $end
      $var wire  4 s! D5 [3:0] $end
      $var wire  4 t! D6 [3:0] $end
      $var wire  4 u! D7 [3:0] $end
      $var wire  4 l! IDLE [3:0] $end
      $var wire  1 1! LoadCounter $end
      $var wire  1 0! LoadSR $end
      $var wire  4 2! ROMaddr [3:0] $end
      $var wire  4 k! RST [3:0] $end
      $var wire  4 m! START [3:0] $end
      $var wire  4 R! STOP [3:0] $end
      $var wire  1 /! SetSR $end
      $var wire  1 .! Shift $end
      $var wire  1 w TBR_Valid $end
      $var wire  1 I! clk $end
      $var wire  5 4! out [4:0] $end
      $var wire  1 D! reset $end
      $var wire  4 3! state [3:0] $end
     $upscope $end
     $scope module Out_Reg $end
      $var wire  1 -! Clear_Valid $end
      $var wire  8 9! Data_in [7:0] $end
      $var wire  1 0! Load $end
      $var wire  1 /! Set $end
      $var wire  1 .! Shift $end
      $var wire  8 5! TBR [7:0] $end
      $var wire  1 w TBR_Valid $end
      $var wire  1 Z! TBR_en $end
      $var wire 10 6! TSR [9:0] $end
      $var wire  1 p Tx $end
      $var wire  1 I! clk $end
      $var wire  1 D! reset $end
     $upscope $end
     $scope module ROM $end
      $var wire  1 I! CLOCK $end
      $var wire  4 2! addr [3:0] $end
      $var wire  8 o data_out [7:0] $end
      $var wire  8 - mem(0) [7:0] $end
      $var wire  8 . mem(1) [7:0] $end
      $var wire  8 / mem(2) [7:0] $end
      $var wire  8 0 mem(3) [7:0] $end
      $var wire  8 1 mem(4) [7:0] $end
      $var wire  8 2 mem(5) [7:0] $end
      $var wire  8 3 mem(6) [7:0] $end
      $var wire  8 4 mem(7) [7:0] $end
      $var wire  8 5 mem(8) [7:0] $end
      $var wire  8 6 mem(9) [7:0] $end
     $upscope $end
    $upscope $end
   $upscope $end
  $upscope $end
 $upscope $end
$enddefinitions $end


#0
b00000101 #
b00001010 $
b00001010 %
b00001010 &
b00001010 '
b00001010 (
b00001010 )
b00001010 *
b00001010 +
b00001010 ,
b00001010 -
b00001010 .
b00001010 /
b00001010 0
b00001010 1
b00001010 2
b00001010 3
b00001010 4
b00001010 5
b00001010 6
b1000000011111111 7
08
b00000000000000000000000000000000000000000000000000000000000000000000000000000000000000000000000000000000000000000000000000000000000000000000000000000000000000000000000000000000000000000000000000000000000000000000000000000000000000000000000000000000000000000000000000000000 9
b00000000 B
0C
0D
0E
1F
b00 G
0H
0I
b1101111010101101 J
0K
b0000000000000000 L
b000000000000000000000000000000000000000000000000000000000000000000000000000000000000000000000000000000000000000000000000000000000000000000000000000000000000000000000000000000000000000000000000000000000000000000000000000000000000000000000000 M
b0000000000000 U
b0000 V
b0000000000000000 W
0X
b00 Y
b00000000000000000 Z
0[
0\
b0000000000000000 ]
b0000000000000000 ^
0_
0`
0a
0b
0c
b00000000000000000000000000000000000000000000000000000000000000000000000000000000000000000000000000000000000000000000000000000000000000000000000000000000000000000000000000000000000000000000000000000000000000000000000000000000000000000000000000000000000000000000000000000000 d
b0000000000000 m
b00000000 n
b00000000 o
0p
0q
0r
b00000000 s
0t
0u
0v
0w
b00000000 x
b00000000 y
b000000000000000000000000000000000 z
b0000 |
0}
0~
0!!
0"!
0#!
0$!
b0000 %!
0&!
0'!
b0000 (!
b00000000 )!
b00000000 *!
b00000000 +!
0,!
0-!
0.!
0/!
00!
01!
b0000 2!
b0000 3!
b00000 4!
b00000000 5!
b0000000000 6!
b00000000 7!
b0000000000000000 8!
b00000000 9!
b000000000000000000000000000000000000000000000000000000000000000000000000000000000000000000000000000000000000000000000000000000000000000000000000000000000000000000000000000000000000000000000000000000000000000000000000000000000000000000000000 :!
b0000000000000000 B!
b0000000000000 C!
0D!
0E!
0F!
b000000 G!
1H!
0I!
1J!
b0000000000000 K!
b0000000000001 L!
b0000000000000010 M!
b00000000000000000000000000000000 N!
b0000000000000000 O!
b00000000000000000000000000000000 P!
b00000000000000000000000000000001 Q!
b1011 R!
b00000000000000000000000000000000 S!
b00000000000000000000000000000000 T!
b00000000000000000000000000000000 U!
0V!
b00000000 W!
b00000000000000000000000000000000 X!
b00000000000000000000000000010000 Y!
1Z!
b00000000000000000000000000001111 [!
b00000000000000000000000011101111 \!
b00000000000000000000000000010001 ]!
b00000000000000000000000100001111 ^!
b00000000000000000010000000000000 _!
b00000000000000000000000000001101 `!
0a!
b0000000000000000 b!
b0000000000000001 c!
b0000000000010000 d!
b0000000000010001 e!
b0000000000100001 f!
b0000000000110000 g!
b0000000000110001 h!
b0000000000110010 i!
b0000000000110011 j!
b0000 k!
b0001 l!
b0010 m!
b0011 n!
b0100 o!
b0101 p!
b0110 q!
b0111 r!
b1000 s!
b1001 t!
b1010 u!
#31
b0001 V
b0000000011111111 W
1X
b01 Y
1[
1\
b1000000011111111 ]
b00000101 n
b00001010 o
1p
b1111111111 6!
1D!
b111111 G!
0H!
1I!
0J!
#62
1E!
0I!
b00000000000000000000000000000001 N!
#93
1F!
1I!
b00000000000000000000000000000010 N!
#125
b111110 G!
0I!
b00000000000000000000000000000011 N!
#156
b111101 G!
1I!
b00000000000000000000000000000100 N!
#187
b111100 G!
0I!
b00000000000000000000000000000101 N!
#218
b111011 G!
1I!
b00000000000000000000000000000110 N!
#250
b111010 G!
0I!
b00000000000000000000000000000111 N!
#281
b111001 G!
1I!
b00000000000000000000000000001000 N!
#312
b111000 G!
0I!
b00000000000000000000000000001001 N!
#343
b110111 G!
1I!
b00000000000000000000000000001010 N!
#375
b110110 G!
0I!
b00000000000000000000000000001011 N!
#406
b110101 G!
1I!
b00000000000000000000000000001100 N!
#437
b110100 G!
0I!
b00000000000000000000000000001101 N!
#468
b110011 G!
1I!
b00000000000000000000000000001110 N!
#500
b110010 G!
0I!
b00000000000000000000000000001111 N!
#531
b110001 G!
1I!
b00000000000000000000000000010000 N!
#562
b110000 G!
0I!
b00000000000000000000000000010001 N!
#593
b101111 G!
1I!
b00000000000000000000000000010010 N!
#625
b101110 G!
0I!
b00000000000000000000000000010011 N!
#656
b101101 G!
1I!
b00000000000000000000000000010100 N!
#687
b101100 G!
0I!
b00000000000000000000000000010101 N!
#718
b101011 G!
1I!
b00000000000000000000000000010110 N!
#750
b101010 G!
0I!
b00000000000000000000000000010111 N!
#781
b101001 G!
1I!
b00000000000000000000000000011000 N!
#812
b101000 G!
0I!
b00000000000000000000000000011001 N!
#843
b100111 G!
1I!
b00000000000000000000000000011010 N!
#875
b100110 G!
0I!
b00000000000000000000000000011011 N!
#906
b100101 G!
1I!
b00000000000000000000000000011100 N!
#937
b100100 G!
0I!
b00000000000000000000000000011101 N!
#968
b100011 G!
1I!
b00000000000000000000000000011110 N!
#1000
b100010 G!
0I!
b00000000000000000000000000011111 N!
#1031
b100001 G!
1I!
b00000000000000000000000000100000 N!
#1062
b100000 G!
0I!
b00000000000000000000000000100001 N!
#1093
b011111 G!
1I!
b00000000000000000000000000100010 N!
#1125
b011110 G!
0I!
b00000000000000000000000000100011 N!
#1156
b011101 G!
1I!
b00000000000000000000000000100100 N!
#1187
b011100 G!
0I!
b00000000000000000000000000100101 N!
#1218
b011011 G!
1I!
b00000000000000000000000000100110 N!
#1250
b011010 G!
0I!
b00000000000000000000000000100111 N!
#1281
b011001 G!
1I!
b00000000000000000000000000101000 N!
#1312
b011000 G!
0I!
b00000000000000000000000000101001 N!
#1343
b010111 G!
1I!
b00000000000000000000000000101010 N!
#1375
b010110 G!
0I!
b00000000000000000000000000101011 N!
#1406
b010101 G!
1I!
b00000000000000000000000000101100 N!
#1437
b010100 G!
0I!
b00000000000000000000000000101101 N!
#1468
b010011 G!
1I!
b00000000000000000000000000101110 N!
#1500
b010010 G!
0I!
b00000000000000000000000000101111 N!
#1531
b010001 G!
1I!
b00000000000000000000000000110000 N!
#1562
b010000 G!
0I!
b00000000000000000000000000110001 N!
#1593
b001111 G!
1I!
b00000000000000000000000000110010 N!
#1625
b001110 G!
0I!
b00000000000000000000000000110011 N!
#1656
b001101 G!
1I!
b00000000000000000000000000110100 N!
#1687
b001100 G!
0I!
b00000000000000000000000000110101 N!
#1718
b001011 G!
1I!
b00000000000000000000000000110110 N!
#1750
b001010 G!
0I!
b00000000000000000000000000110111 N!
#1781
b001001 G!
1I!
b00000000000000000000000000111000 N!
#1812
b001000 G!
0I!
b00000000000000000000000000111001 N!
#1843
b000111 G!
1I!
b00000000000000000000000000111010 N!
#1875
b000110 G!
0I!
b00000000000000000000000000111011 N!
#1906
b000101 G!
1I!
b00000000000000000000000000111100 N!
#1937
b000100 G!
0I!
b00000000000000000000000000111101 N!
#1968
b000011 G!
1I!
b00000000000000000000000000111110 N!
#2000
b000010 G!
0I!
b00000000000000000000000000111111 N!
#2031
b000001 G!
1I!
b00000000000000000000000001000000 N!
#2062
b000000 G!
0I!
b00000000000000000000000001000001 N!
#2093
0D!
1H!
1I!
b00000000000000000000000001000010 N!
#2125
0F
1K
b0000000011111111 L
b0000000000001 U
b0010 V
b11111111100000001 Z
1w
b000000000000000000000000000000001 z
b0001 |
1'!
1/!
b0001 3!
b00010 4!
b0000000011111111 B!
b0000011111111 C!
0I!
b00000000000000000000000001000011 N!
#2156
b0000000000000000 7
0K
b000000000000000000000000000000000000000000000000000000000000000000000000000000000000000000000000000000000000000000000000000000000000000000000000000000000000000000000000000000000000000000000000000000000000000000000000000000000000000011111111 M
b0000000000010 U
b0011 V
b0000000000110010 W
b00000000000000000 Z
b1000000000110010 ]
1a
b0000011111111 m
b000000000000000000000000000000010 z
b0010 |
1!!
1-!
0/!
10!
11!
b0001 2!
b0010 3!
b10101 4!
b0000000011111111 8!
b11111111 9!
1I!
b0000000000001 K!
b0000000000010 L!
b0000000000000100 M!
b00000000000000000000000001000100 N!
#2187
1D
1H
b010101011010101000000000000000000000000000000000000000000000000000000000000000000000000000000000000000000000000000000000000000000000000000000000000000000000000000000000000000000000000000000000000000000000000000000000000000000000000000000000 M
b0000000000011 U
b0010 V
0X
b11 Y
b00000000011001101 Z
b0110000001000011 ]
0a
1b
0p
0w
b000000000000000000000000000000011 z
b0011 |
b0001 (!
0-!
00!
01!
b00000 4!
b11111111 5!
b1000000000 6!
b00001010 7!
b000000000000000000000000000000000000000000000000000000000000000000000000000000000000000000000000000000000000000000000000000000000000000000000000000000000000000000000000000000000000000000000000000000000000000000000000000000000000000011111111 :!
b0000000000110010 B!
b0000000110010 C!
0I!
b0000000000010 K!
b0000000000011 L!
b0000000000110010 M!
b00000000000000000000000001000101 N!
#2218
0D
b0000000000000000 L
b010101011010101001010101101010100000000000000000000000000000000000000000000000000000000000000000000000000000000000000000000000000000000000000000000000000000000000000000000000000000000000000000000000000000000000000000000000000000000000000000 M
b0000000000100 U
b0001 V
b0110000000000011 ]
0b
b0000000110010 m
1w
b11111111 y
b000000000000000000000000000000100 z
b0010 |
0'!
b00001001 7!
b010101011010101000000000000000000000000000000000000000000000000000000000000000000000000000000000000000000000000000000000000000000000000000000000000000000000000000000000000000000000000000000000000000000000000000000000000000000000000000000000 :!
1I!
b0000000000011 K!
b0000000000100 L!
b00000000000000000000000001000100 N!
#2250
0H
1K
b0000000000110010 L
b010101011010101000000000000000000000000000000000000000000000000000000000000000000000000000000000000000000000000000000000000000000000000000000000000000000000000000000000000000000000000000000000000000000000000000000000000000000000000000000000 M
b0000000000101 U
b0010 V
b0000000010101010 W
1X
b01 Y
b11111111111001110 Z
b1000000010101010 ]
1`
b000000000000000000000000000000101 z
b0001 |
1~
0!!
b00001000 7!
b0000000000000000 8!
b00000000 9!
b010101011010101001010101101010100000000000000000000000000000000000000000000000000000000000000000000000000000000000000000000000000000000000000000000000000000000000000000000000000000000000000000000000000000000000000000000000000000000000000000 :!
0I!
b0000000000100 K!
b0000000000101 L!
b0000000000001010 M!
b00000000000000000000000001000011 N!
#2281
b0000000010101010 L
b000000000000000000000000000000000000000000000000000000000000000000000000000000000000000000000000000000000000000000000000000000000000000000000000000000000000000000000000000000000000000000000000000000000000000000000000000000000000000000110010 M
b0000000000110 U
b0011 V
b0000000000110000 W
b11111111110001000 Z
b1000000000110000 ]
0`
1a
b000000000000000000000000000000110 z
b0010 |
0~
1$!
b0010 (!
b00010000 )!
b00000000 5!
b00000111 7!
b0000000000110010 8!
b00110010 9!
b010101011010101000000000000000000000000000000000000000000000000000000000000000000000000000000000000000000000000000000000000000000000000000000000000000000000000000000000000000000000000000000000000000000000000000000000000000000000000000000000 :!
b0000000010101010 B!
b0000010101010 C!
1I!
b0000000000101 K!
b0000000000110 L!
b0000000000001100 M!
b00000000000000000000000001000100 N!
#2312
1D
1H
0K
b0000000000110010 L
b010101011010101000000000000000000000000000000000000000000000000000000000000000000000000000000000000000000000000000000000000000000000000000000000000000000000000000000000000000000000000000000000000000000000000000000000000000000000000000000000 M
b0000000000111 U
b0010 V
0X
b11 Y
b00000000001111010 Z
b0110000001000011 ]
0a
1b
b0000010101010 m
b000000000000000000000000000000111 z
b0011 |
0$!
b0001 %!
b00000001 )!
b00000101 *!
b00110010 5!
b00000110 7!
b0000000010101010 8!
b10101010 9!
b000000000000000000000000000000000000000000000000000000000000000000000000000000000000000000000000000000000000000000000000000000000000000000000000000000000000000000000000000000000000000000000000000000000000000000000000000000000000000000110010 :!
b0000000000110000 B!
b0000000110000 C!
0I!
b0000000000110 K!
b0000000000111 L!
b0000000000110000 M!
b00000000000000000000000001000101 N!
#2343
b10101010 B
0D
b0000000000000000 L
b010101011010101001010101101010100000000000000000000000000000000000000000000000000000000000000000000000000000000000000000000000000000000000000000000000000000000000000000000000000000000000000000000000000000000000000000000000000000000000000000 M
b0000000001000 U
b0001 V
b00000000000000010 Z
b0110000000000011 ]
0b
b0000000110000 m
b00001010 n
b10101010 x
b000000000000000000000000000001000 z
b0010 |
b00000100 *!
b10101010 5!
b00000101 7!
b0000000000110010 8!
b00110010 9!
b010101011010101000000000000000000000000000000000000000000000000000000000000000000000000000000000000000000000000000000000000000000000000000000000000000000000000000000000000000000000000000000000000000000000000000000000000000000000000000000000 :!
1I!
b0000000000111 K!
b0000000001000 L!
b00000000000000000000000001000100 N!
#2375
0H
1K
b0000000000110000 L
b010101011010101000000000000000000000000000000000000000000000000000000000000000000000000000000000000000000000000000000000000000000000000000000000000000000000000000000000000000000000000000000000000000000000000000000000000000000000000000000000 M
b0000000001001 U
b0010 V
b0000000001010101 W
1X
b01 Y
b11111111111010000 Z
b1000000001010101 ]
1c
b000000000000000000000000000001001 z
b0001 |
b00000011 *!
b00110010 5!
b00000100 7!
b0000000000000000 8!
b00000000 9!
b010101011010101001010101101010100000000000000000000000000000000000000000000000000000000000000000000000000000000000000000000000000000000000000000000000000000000000000000000000000000000000000000000000000000000000000000000000000000000000000000 :!
0I!
b0000000001000 K!
b0000000001001 L!
b0000000000010010 M!
b00000000000000000000000001000011 N!
#2406
b0000000001010101 L
b000000000000000000000000000000000000000000000000000000000000000000000000000000000000000000000000000000000000000000000000000000000000000000000000000000000000000000000000000000000000000000000000000000000000000000000000000000000000000000110000 M
b0000000001010 U
b0011 V
b0000000000110000 W
b11111111111011011 Z
b1000000000110000 ]
1a
0c
b000000000000000000000000000001010 z
b0010 |
b00000010 *!
b00000000 5!
b00000011 7!
b0000000000110000 8!
b00110000 9!
b010101011010101000000000000000000000000000000000000000000000000000000000000000000000000000000000000000000000000000000000000000000000000000000000000000000000000000000000000000000000000000000000000000000000000000000000000000000000000000000000 :!
b0000000001010101 B!
b0000001010101 C!
1I!
b0000000001001 K!
b0000000001010 L!
b0000000000010100 M!
b00000000000000000000000001000100 N!
#2437
1D
1H
0K
b0000000000110000 L
b010101011010101000000000000000000000000000000000000000000000000000000000000000000000000000000000000000000000000000000000000000000000000000000000000000000000000000000000000000000000000000000000000000000000000000000000000000000000000000000000 M
b0000000001011 U
b0010 V
0X
b11 Y
b00000000000100101 Z
b0110000001000011 ]
0a
1b
b0000001010101 m
b000000000000000000000000000001011 z
b0011 |
b00000001 *!
b00110000 5!
b00000010 7!
b0000000001010101 8!
b01010101 9!
b000000000000000000000000000000000000000000000000000000000000000000000000000000000000000000000000000000000000000000000000000000000000000000000000000000000000000000000000000000000000000000000000000000000000000000000000000000000000000000110000 :!
b0000000000110000 B!
b0000000110000 C!
0I!
b0000000001010 K!
b0000000001011 L!
b0000000000110000 M!
b00000000000000000000000001000101 N!
#2468
b01010101 B
0D
b0000000000000000 L
b010101011010101001010101101010100000000000000000000000000000000000000000000000000000000000000000000000000000000000000000000000000000000000000000000000000000000000000000000000000000000000000000000000000000000000000000000000000000000000000000 M
b0000000001100 U
b0001 V
b00000000000000000 Z
b0110000000000011 ]
0b
b0000000110000 m
1q
b01010101 x
b000000000000000000000000000001100 z
b0010 |
1"!
b00000000 *!
b01010101 5!
b00000001 7!
b0000000000110000 8!
b00110000 9!
b010101011010101000000000000000000000000000000000000000000000000000000000000000000000000000000000000000000000000000000000000000000000000000000000000000000000000000000000000000000000000000000000000000000000000000000000000000000000000000000000 :!
1I!
b0000000001011 K!
b0000000001100 L!
b00000000000000000000000001000100 N!
#2500
0H
1K
b010101011010101000000000000000000000000000000000000000000000000000000000000000000000000000000000000000000000000000000000000000000000000000000000000000000000000000000000000000000000000000000000000000000000000000000000000000000000000000000000 M
b0000000000000 U
b00 Y
b11111111111010000 Z
0[
b0000000000000000 ]
b000000000000000000000000000001101 z
b0001 |
0"!
1$!
b0011 (!
b00010001 )!
1,!
b00110000 5!
b00000000 7!
b0000000000000000 8!
b00000000 9!
b010101011010101001010101101010100000000000000000000000000000000000000000000000000000000000000000000000000000000000000000000000000000000000000000000000000000000000000000000000000000000000000000000000000000000000000000000000000000000000000000 :!
0I!
b0000000001100 K!
b0000000001101 L!
b0000000000011010 M!
b00000000000000000000000001000011 N!
#2531
b0000000000110000 L
b0000000000001 U
b0010 V
b0000000011111111 W
1X
b01 Y
1[
b1000000011111111 ]
b000000000000000000000000000001110 z
0$!
b0010 %!
b00000010 )!
b00001010 *!
0,!
1.!
11!
b0010 2!
b0011 3!
b01001 4!
b00000000 5!
1I!
b0000000000000 K!
b0000000000001 L!
b0000000000000010 M!
