hw/fpga/sim/RAM_stack/run/wave.vcd
$version Generated by VerilatedVcd $end
$date Tue Dec 10 17:18:21 2019
 $end
$timescale   1ns $end

 $scope module TOP $end
  $var wire  1 d! verilator_clk $end
  $var wire  1 e! verilator_rst $end
  $scope module tb $end
   $var wire 32 h! SIM_DELAY [31:0] $end
   $var wire  4 i! SOME_PARAM [3:0] $end
   $var wire  1 d! clk $end
   $var wire  1 m! clk_16 $end
   $var wire  8 > gpio [7:0] $end
   $var wire  8 n! gpio_drive [7:0] $end
   $var wire 32 j! i [31:0] $end
   $var wire 32 k! j [31:0] $end
   $var wire 32 l! k [31:0] $end
   $var wire  1 7! led $end
   $var wire  1 I rst_n $end
   $var wire  1 6! uart_rxd $end
   $var wire  1 6! uart_txd $end
   $var wire  1 d! verilator_clk $end
   $var wire  1 e! verilator_rst $end
   $scope module top $end
    $var wire 32 p! DATA_WIDTH [31:0] $end
    $var wire 32 h! INFER [31:0] $end
    $var wire 32 o! PARAM1 [31:0] $end
    $var wire  1 d! clk $end
    $var wire 33 A! count [32:0] $end
    $var wire  8 > gpio [7:0] $end
    $var wire  8 > gpio_in [7:0] $end
    $var wire  8 @! gpio_oe [7:0] $end
    $var wire  8 ?! gpio_out [7:0] $end
    $var wire 13 B j1_code_addr [12:0] $end
    $var wire 16 Q j1_dout [15:0] $end
    $var wire 16 U j1_insn [15:0] $end
    $var wire 16 A j1_io_din [15:0] $end
    $var wire  1 ? j1_io_rd $end
    $var wire  1 @ j1_io_wr $end
    $var wire 16 8! j1_mem_addr [15:0] $end
    $var wire  1 ; j1_mem_wr $end
    $var wire  1 7! led $end
    $var wire  1 _! rst $end
    $var wire  6 b! rst_count [5:0] $end
    $var wire  1 I rst_n $end
    $var wire  1 `! rst_n_1 $end
    $var wire  1 a! rst_n_2 $end
    $var wire  1 9! uart_rx_clr_ovrflw $end
    $var wire  1 <! uart_rx_d_valid $end
    $var wire  1 =! uart_rx_overflow $end
    $var wire  1 C uart_rx_rd $end
    $var wire  8 :! uart_rx_rdata [7:0] $end
    $var wire  1 ;! uart_rx_sfe $end
    $var wire  1 6! uart_rxd $end
    $var wire  1 >! uart_tx_tbr_valid $end
    $var wire  8 R uart_tx_wdata [7:0] $end
    $var wire  1 D uart_tx_wr $end
    $var wire  1 6! uart_txd $end
    $scope module csr1 $end
     $var wire 16 "" CSR_GPIO_IN [15:0] $end
     $var wire 16 #" CSR_GPIO_OE [15:0] $end
     $var wire 16 !" CSR_GPIO_OUT [15:0] $end
     $var wire 16 $" CSR_LED [15:0] $end
     $var wire 16 |! CSR_UART_RX_DATA [15:0] $end
     $var wire 16 }! CSR_UART_RX_DATA_VALID [15:0] $end
     $var wire 16 ~! CSR_UART_RX_OVERFLOW [15:0] $end
     $var wire 16 z! CSR_UART_TX_DATA [15:0] $end
     $var wire 16 {! CSR_UART_TX_TBR_VALID [15:0] $end
     $var wire  1 d! clk $end
     $var wire  8 > gpio_in [7:0] $end
     $var wire  8 @! gpio_oe [7:0] $end
     $var wire  8 ?! gpio_out [7:0] $end
     $var wire 16 Q j1_dout [15:0] $end
     $var wire 16 A j1_io_din [15:0] $end
     $var wire  1 ? j1_io_rd $end
     $var wire  1 @ j1_io_wr $end
     $var wire 16 8! j1_mem_addr [15:0] $end
     $var wire  1 E! led $end
     $var wire  1 _! rst $end
     $var wire  1 9! uart_rx_clr_ovrflw $end
     $var wire  1 <! uart_rx_d_valid $end
     $var wire  1 =! uart_rx_overflow $end
     $var wire  1 C uart_rx_rd $end
     $var wire  8 :! uart_rx_rdata [7:0] $end
     $var wire  1 >! uart_tx_tbr_valid $end
     $var wire  8 R uart_tx_wdata [7:0] $end
     $var wire  1 D uart_tx_wr $end
    $upscope $end
    $scope module j1_prb $end
     $var wire 32 p! WIDTH [31:0] $end
     $var wire  1 d! clk $end
     $var wire 13 B code_addr [12:0] $end
     $var wire 16 Q dout [15:0] $end
     $var wire  4 C! dsp [3:0] $end
     $var wire  2 M dspI [1:0] $end
     $var wire  4 J dspN [3:0] $end
     $var wire  1 K dstkW $end
     $var wire  1 V func_T_N $end
     $var wire  1 W func_T_R $end
     $var wire  1 Z func_ior $end
     $var wire  1 Y func_iow $end
     $var wire  1 X func_write $end
     $var wire 16 U insn [15:0] $end
     $var wire 16 A io_din [15:0] $end
     $var wire  1 ? io_rd $end
     $var wire  1 @ io_wr $end
     $var wire  1 G is_alu $end
     $var wire 16 8! mem_addr [15:0] $end
     $var wire  1 ; mem_wr $end
     $var wire 17 T minus [16:0] $end
     $var wire 13 f! pc [12:0] $end
     $var wire 13 B pcN [12:0] $end
     $var wire 13 g! pc_plus_1 [12:0] $end
     $var wire  1 F reboot $end
     $var wire  1 c! resetq $end
     $var wire  2 N rspI [1:0] $end
     $var wire 16 7 rst0 [15:0] $end
     $var wire 16 E rstkD [15:0] $end
     $var wire  1 L rstkW $end
     $var wire  1 H signedless $end
     $var wire 16 8! st0 [15:0] $end
     $var wire 16 S st0N [15:0] $end
     $var wire 16 Q st1 [15:0] $end
     $scope module dstack $end
      $var wire 32 r! ADDR_WIDTH [31:0] $end
      $var wire 32 q! DEPTH [31:0] $end
      $var wire 16 _ RAM_dout [15:0] $end
      $var wire 32 p! WIDTH [31:0] $end
      $var wire  1 d! clk $end
      $var wire  1 d dble_push_buf $end
      $var wire  2 M delta [1:0] $end
      $var wire  2 ` delta_br [1:0] $end
      $var wire 16 c lst_wd [15:0] $end
      $var wire  4 < pop [3:0] $end
      $var wire  1 ^ push $end
      $var wire 16 Q rd [15:0] $end
      $var wire  1 \ rd_add_enable $end
      $var wire  4 O rd_addr [3:0] $end
      $var wire 16 [ rdata_a [15:0] $end
      $var wire  4 b stack_rd_addr_reg [3:0] $end
      $var wire  4 a stack_wr_addr_reg [3:0] $end
      $var wire 16 8! wd [15:0] $end
      $var wire  1 K we $end
      $var wire  1 ] wr_add_enable $end
      $var wire  4 8 wr_addr [3:0] $end
      $var wire  4 s! wr_addr_sig [3:0] $end
      $scope module StackRAM $end
       $var wire 32 r! ADDR_WIDTH [31:0] $end
       $var wire 32 q! DEPTH [31:0] $end
       $var wire 32 h! INFER [31:0] $end
       $var wire 32 p! WIDTH [31:0] $end
       $var wire  4 8 addr_a [3:0] $end
       $var wire  4 O addr_b [3:0] $end
       $var wire  1 d! clk_a $end
       $var wire  1 d! clk_b $end
       $var wire  4 t ram_addr_a [3:0] $end
       $var wire 16 e ram_array(0) [15:0] $end
       $var wire 16 f ram_array(1) [15:0] $end
       $var wire 16 o ram_array(10) [15:0] $end
       $var wire 16 p ram_array(11) [15:0] $end
       $var wire 16 q ram_array(12) [15:0] $end
       $var wire 16 r ram_array(13) [15:0] $end
       $var wire 16 s ram_array(14) [15:0] $end
       $var wire 16 g ram_array(2) [15:0] $end
       $var wire 16 h ram_array(3) [15:0] $end
       $var wire 16 i ram_array(4) [15:0] $end
       $var wire 16 j ram_array(5) [15:0] $end
       $var wire 16 k ram_array(6) [15:0] $end
       $var wire 16 l ram_array(7) [15:0] $end
       $var wire 16 m ram_array(8) [15:0] $end
       $var wire 16 n ram_array(9) [15:0] $end
       $var wire 16 _ ram_rdata_b [15:0] $end
       $var wire 16 [ rdata_a [15:0] $end
       $var wire 16 _ rdata_b [15:0] $end
       $var wire  1 t! rst $end
       $var wire 16 8! wdata_a [15:0] $end
       $var wire  1 K write_en_a $end
      $upscope $end
     $upscope $end
     $scope module rstack $end
      $var wire 32 v! ADDR_WIDTH [31:0] $end
      $var wire 32 u! DEPTH [31:0] $end
      $var wire 16 y RAM_dout [15:0] $end
      $var wire 32 p! WIDTH [31:0] $end
      $var wire  1 d! clk $end
      $var wire  1 ~ dble_push_buf $end
      $var wire  2 N delta [1:0] $end
      $var wire  2 z delta_br [1:0] $end
      $var wire 16 } lst_wd [15:0] $end
      $var wire  5 = pop [4:0] $end
      $var wire  1 x push $end
      $var wire 16 7 rd [15:0] $end
      $var wire  1 v rd_add_enable $end
      $var wire  5 P rd_addr [4:0] $end
      $var wire 16 u rdata_a [15:0] $end
      $var wire  5 | stack_rd_addr_reg [4:0] $end
      $var wire  5 { stack_wr_addr_reg [4:0] $end
      $var wire 16 E wd [15:0] $end
      $var wire  1 L we $end
      $var wire  1 w wr_add_enable $end
      $var wire  5 9 wr_addr [4:0] $end
      $var wire  5 w! wr_addr_sig [4:0] $end
      $scope module StackRAM $end
       $var wire 32 v! ADDR_WIDTH [31:0] $end
       $var wire 32 u! DEPTH [31:0] $end
       $var wire 32 h! INFER [31:0] $end
       $var wire 32 p! WIDTH [31:0] $end
       $var wire  5 9 addr_a [4:0] $end
       $var wire  5 P addr_b [4:0] $end
       $var wire  1 d! clk_a $end
       $var wire  1 d! clk_b $end
       $var wire  5 2! ram_addr_a [4:0] $end
       $var wire 16 !! ram_array(0) [15:0] $end
       $var wire 16 "! ram_array(1) [15:0] $end
       $var wire 16 +! ram_array(10) [15:0] $end
       $var wire 16 ,! ram_array(11) [15:0] $end
       $var wire 16 -! ram_array(12) [15:0] $end
       $var wire 16 .! ram_array(13) [15:0] $end
       $var wire 16 /! ram_array(14) [15:0] $end
       $var wire 16 0! ram_array(15) [15:0] $end
       $var wire 16 1! ram_array(16) [15:0] $end
       $var wire 16 #! ram_array(2) [15:0] $end
       $var wire 16 $! ram_array(3) [15:0] $end
       $var wire 16 %! ram_array(4) [15:0] $end
       $var wire 16 &! ram_array(5) [15:0] $end
       $var wire 16 '! ram_array(6) [15:0] $end
       $var wire 16 (! ram_array(7) [15:0] $end
       $var wire 16 )! ram_array(8) [15:0] $end
       $var wire 16 *! ram_array(9) [15:0] $end
       $var wire 16 y ram_rdata_b [15:0] $end
       $var wire 16 u rdata_a [15:0] $end
       $var wire 16 y rdata_b [15:0] $end
       $var wire  1 t! rst $end
       $var wire 16 E wdata_a [15:0] $end
       $var wire  1 L write_en_a $end
      $upscope $end
     $upscope $end
    $upscope $end
    $scope module sram $end
     $var wire 32 y! ADDR_WIDTH [31:0] $end
     $var wire 32 x! DEPTH [31:0] $end
     $var wire 32 h! INFER [31:0] $end
     $var wire 32 p! WIDTH [31:0] $end
     $var wire 13 D! addr_a [12:0] $end
     $var wire 13 B addr_b [12:0] $end
     $var wire  1 d! clk_a $end
     $var wire  1 d! clk_b $end
     $var wire 13 3! ram_addr_a [12:0] $end
     $var wire 16 U ram_rdata_b [15:0] $end
     $var wire 16 : rdata_a [15:0] $end
     $var wire 16 U rdata_b [15:0] $end
     $var wire  1 t! rst $end
     $var wire 16 Q wdata_a [15:0] $end
     $var wire  1 ; write_en_a $end
    $upscope $end
    $scope module uart_rcvr_top $end
     $var wire  1 d! CLOCK $end
     $var wire  1 H! CO $end
     $var wire  4 K! ROM_addr [3:0] $end
     $var wire  1 C Rd_en $end
     $var wire  1 G! Rx_in $end
     $var wire  1 6! Rx_raw $end
     $var wire  1 ;! SFE $end
     $var wire  1 9! clr_ovrflw $end
     $var wire  1 <! d_valid $end
     $var wire  1 F! f_edge $end
     $var wire  1 I! load_buffer $end
     $var wire  1 J! load_counter $end
     $var wire  8 4! load_value [7:0] $end
     $var wire  1 =! overflow $end
     $var wire  1 _! reset $end
     $var wire  8 :! rx_data_out [7:0] $end
     $var wire  1 L! shift $end
     $scope module Counter $end
      $var wire  1 d! CLOCK $end
      $var wire  1 H! CO $end
      $var wire  8 P! count [7:0] $end
      $var wire  1 J! load $end
      $var wire  8 4! load_value [7:0] $end
      $var wire  1 _! reset $end
     $upscope $end
     $scope module FSM $end
      $var wire  1 d! CLOCK $end
      $var wire  1 H! CO $end
      $var wire  4 (" D0 [3:0] $end
      $var wire  4 )" D1 [3:0] $end
      $var wire  4 *" D2 [3:0] $end
      $var wire  4 +" D3 [3:0] $end
      $var wire  4 ," D4 [3:0] $end
      $var wire  4 -" D5 [3:0] $end
      $var wire  4 ." D6 [3:0] $end
      $var wire  4 /" D7 [3:0] $end
      $var wire  4 &" IDLE [3:0] $end
      $var wire  8 O! Out [7:0] $end
      $var wire  4 K! ROM_addr [3:0] $end
      $var wire  4 %" RST [3:0] $end
      $var wire  1 G! Rx $end
      $var wire  1 ;! SFE $end
      $var wire  4 '" START [3:0] $end
      $var wire  4 i! STOP [3:0] $end
      $var wire  1 F! f_edge $end
      $var wire  1 I! load_buffer $end
      $var wire  1 J! load_counter $end
      $var wire  1 _! reset $end
      $var wire  1 L! shift $end
      $var wire  4 N! state_reg [3:0] $end
     $upscope $end
     $scope module ROM $end
      $var wire  1 d! CLOCK $end
      $var wire  4 K! addr [3:0] $end
      $var wire  8 4! data_out [7:0] $end
      $var wire  8 # mem(0) [7:0] $end
      $var wire  8 $ mem(1) [7:0] $end
      $var wire  8 % mem(2) [7:0] $end
      $var wire  8 & mem(3) [7:0] $end
      $var wire  8 ' mem(4) [7:0] $end
      $var wire  8 ( mem(5) [7:0] $end
      $var wire  8 ) mem(6) [7:0] $end
      $var wire  8 * mem(7) [7:0] $end
      $var wire  8 + mem(8) [7:0] $end
      $var wire  8 , mem(9) [7:0] $end
     $upscope $end
     $scope module Rx_register $end
      $var wire  1 d! CLOCK $end
      $var wire  1 M! Rx_intermediate $end
      $var wire  1 G! Rx_out $end
      $var wire  1 6! Rx_raw $end
      $var wire  1 F! f_edge $end
      $var wire  1 _! reset $end
     $upscope $end
     $scope module Shft_reg $end
      $var wire  1 d! CLOCK $end
      $var wire  1 C Rd_en $end
      $var wire  1 G! Rx $end
      $var wire  8 R! buffer_reg [7:0] $end
      $var wire  1 9! clr_ovrflw $end
      $var wire  1 <! d_valid $end
      $var wire  1 I! load_buffer $end
      $var wire  1 =! overflow $end
      $var wire  1 _! reset $end
      $var wire  8 :! rx_data_out [7:0] $end
      $var wire  8 Q! shft_reg [7:0] $end
      $var wire  1 L! shift $end
     $upscope $end
    $upscope $end
    $scope module uart_tr_top $end
     $var wire  1 S! CO $end
     $var wire  1 T! Clear_Valid $end
     $var wire  8 5! Counter_Val [7:0] $end
     $var wire  8 R Data_in [7:0] $end
     $var wire  1 X! LC $end
     $var wire  1 W! LoadSR $end
     $var wire  4 Y! ROMaddr [3:0] $end
     $var wire  1 V! SetSR $end
     $var wire  1 U! Shift $end
     $var wire  1 >! TBR_Valid $end
     $var wire  1 D TBR_en $end
     $var wire  1 6! Tx $end
     $var wire  1 d! clk $end
     $var wire  1 _! reset $end
     $scope module Cntr $end
      $var wire  1 d! CLOCK $end
      $var wire  1 S! CO $end
      $var wire  8 ^! count [7:0] $end
      $var wire  1 X! load $end
      $var wire  8 5! load_value [7:0] $end
      $var wire  1 _! reset $end
     $upscope $end
     $scope module FSM1 $end
      $var wire  1 S! CO $end
      $var wire  1 T! Clear_Valid $end
      $var wire  4 (" D0 [3:0] $end
      $var wire  4 )" D1 [3:0] $end
      $var wire  4 *" D2 [3:0] $end
      $var wire  4 +" D3 [3:0] $end
      $var wire  4 ," D4 [3:0] $end
      $var wire  4 -" D5 [3:0] $end
      $var wire  4 ." D6 [3:0] $end
      $var wire  4 /" D7 [3:0] $end
      $var wire  4 &" IDLE [3:0] $end
      $var wire  1 X! LoadCounter $end
      $var wire  1 W! LoadSR $end
      $var wire  4 Y! ROMaddr [3:0] $end
      $var wire  4 %" RST [3:0] $end
      $var wire  4 '" START [3:0] $end
      $var wire  4 i! STOP [3:0] $end
      $var wire  1 V! SetSR $end
      $var wire  1 U! Shift $end
      $var wire  1 >! TBR_Valid $end
      $var wire  1 d! clk $end
      $var wire  5 [! out [4:0] $end
      $var wire  1 _! reset $end
      $var wire  4 Z! state [3:0] $end
     $upscope $end
     $scope module Out_Reg $end
      $var wire  1 T! Clear_Valid $end
      $var wire  8 R Data_in [7:0] $end
      $var wire  1 W! Load $end
      $var wire  1 V! Set $end
      $var wire  1 U! Shift $end
      $var wire  8 \! TBR [7:0] $end
      $var wire  1 >! TBR_Valid $end
      $var wire  1 D TBR_en $end
      $var wire 10 ]! TSR [9:0] $end
      $var wire  1 6! Tx $end
      $var wire  1 d! clk $end
      $var wire  1 _! reset $end
     $upscope $end
     $scope module ROM $end
      $var wire  1 d! CLOCK $end
      $var wire  4 Y! addr [3:0] $end
      $var wire  8 5! data_out [7:0] $end
      $var wire  8 - mem(0) [7:0] $end
      $var wire  8 . mem(1) [7:0] $end
      $var wire  8 / mem(2) [7:0] $end
      $var wire  8 0 mem(3) [7:0] $end
      $var wire  8 1 mem(4) [7:0] $end
      $var wire  8 2 mem(5) [7:0] $end
      $var wire  8 3 mem(6) [7:0] $end
      $var wire  8 4 mem(7) [7:0] $end
      $var wire  8 5 mem(8) [7:0] $end
      $var wire  8 6 mem(9) [7:0] $end
     $upscope $end
    $upscope $end
   $upscope $end
  $upscope $end
 $upscope $end
$enddefinitions $end


#0
b00000101 #
b00001010 $
b00001010 %
b00001010 &
b00001010 '
b00001010 (
b00001010 )
b00001010 *
b00001010 +
b00001010 ,
b00001010 -
b00001010 .
b00001010 /
b00001010 0
b00001010 1
b00001010 2
b00001010 3
b00001010 4
b00001010 5
b00001010 6
b0000000000000000 7
b0000 8
b00000 9
b0110000000000000 :
0;
b0000 <
b00000 =
b00000000 >
0?
0@
b1101111010101101 A
b0000000000000 B
0C
0D
b0000000000000010 E
1F
0G
0H
0I
b0000 J
0K
0L
b00 M
b00 N
b0000 O
b00000 P
b0000000000000000 Q
b00000000 R
b0000000000000000 S
b00000000000000000 T
b0000000000000000 U
0V
0W
0X
0Y
0Z
b0000000000000000 [
0\
1]
0^
b0000000000000000 _
b00 `
b0000 a
b0000 b
b0000000000000000 c
0d
b0000000000000000 e
b0000000000000000 f
b0000000000000000 g
b0000000000000000 h
b0000000000000000 i
b0000000000000000 j
b0000000000000000 k
b0000000000000000 l
b0000000000000000 m
b0000000000000000 n
b0000000000000000 o
b0000000000000000 p
b0000000000000000 q
b0000000000000000 r
b0000000000000000 s
b0000 t
b0000000000000000 u
0v
1w
0x
b0000000000000000 y
b00 z
b00000 {
b00000 |
b0000000000000000 }
0~
b0000000000000000 !!
b0000000000000000 "!
b0000000000000000 #!
b0000000000000000 $!
b0000000000000000 %!
b0000000000000000 &!
b0000000000000000 '!
b0000000000000000 (!
b0000000000000000 )!
b0000000000000000 *!
b0000000000000000 +!
b0000000000000000 ,!
b0000000000000000 -!
b0000000000000000 .!
b0000000000000000 /!
b0000000000000000 0!
b0000000000000000 1!
b00000 2!
b0000000000000 3!
b00000000 4!
b00000000 5!
06!
07!
b0000000000000000 8!
09!
b00000000 :!
0;!
0<!
0=!
0>!
b00000000 ?!
b00000000 @!
b000000000000000000000000000000000 A!
b0000 C!
b0000000000000 D!
0E!
0F!
0G!
0H!
0I!
0J!
b0000 K!
0L!
0M!
b0000 N!
b00000000 O!
b00000000 P!
b00000000 Q!
b00000000 R!
0S!
0T!
0U!
0V!
0W!
0X!
b0000 Y!
b0000 Z!
b00000 [!
b00000000 \!
b0000000000 ]!
b00000000 ^!
0_!
0`!
0a!
b000000 b!
1c!
0d!
1e!
b0000000000000 f!
b0000000000001 g!
b00000000000000000000000000000001 h!
b1011 i!
b00000000000000000000000000000000 j!
b00000000000000000000000000000000 k!
b00000000000000000000000000000000 l!
0m!
b00000000 n!
b00000000000000000000000000000000 o!
b00000000000000000000000000010000 p!
b00000000000000000000000000001111 q!
b00000000000000000000000000000100 r!
b0000 s!
0t!
b00000000000000000000000000010001 u!
b00000000000000000000000000000101 v!
b00000 w!
b00000000000000000010000000000000 x!
b00000000000000000000000000001101 y!
b0000000000000000 z!
b0000000000000001 {!
b0000000000010000 |!
b0000000000010001 }!
b0000000000100001 ~!
b0000000000110000 !"
b0000000000110001 ""
b0000000000110010 #"
b0000000000110011 $"
b0000 %"
b0001 &"
b0010 '"
b0011 ("
b0100 )"
b0101 *"
b0110 +"
b0111 ,"
b1000 -"
b1001 ."
b1010 /"
#31
b0000000000000000 E
1G
1I
b0110000000000000 U
b0000000000000010 }
b00000101 4!
b00001010 5!
16!
b1111111111 ]!
1_!
b111111 b!
0c!
1d!
0e!
#62
b0000000000000000 }
1`!
0d!
#93
1a!
1d!
#125
b111110 b!
0d!
#156
b111101 b!
1d!
#187
b111100 b!
0d!
#218
b111011 b!
1d!
#250
b111010 b!
0d!
#281
b111001 b!
1d!
#312
b111000 b!
0d!
#343
b110111 b!
1d!
#375
b110110 b!
0d!
#406
b110101 b!
1d!
#437
b110100 b!
0d!
#468
b110011 b!
1d!
#500
b110010 b!
0d!
#531
b110001 b!
1d!
#562
b110000 b!
0d!
#593
b101111 b!
1d!
#625
b101110 b!
0d!
#656
b101101 b!
1d!
#687
b101100 b!
0d!
#718
b101011 b!
1d!
#750
b101010 b!
0d!
#781
b101001 b!
1d!
#812
b101000 b!
0d!
#843
b100111 b!
1d!
#875
b100110 b!
0d!
#906
b100101 b!
1d!
#937
b100100 b!
0d!
#968
b100011 b!
1d!
#1000
b100010 b!
0d!
#1031
b100001 b!
1d!
#1062
b100000 b!
0d!
#1093
b011111 b!
1d!
#1125
b011110 b!
0d!
#1156
b011101 b!
1d!
#1187
b011100 b!
0d!
#1218
b011011 b!
1d!
#1250
b011010 b!
0d!
#1281
b011001 b!
1d!
#1312
b011000 b!
0d!
#1343
b010111 b!
1d!
#1375
b010110 b!
0d!
#1406
b010101 b!
1d!
#1437
b010100 b!
0d!
#1468
b010011 b!
1d!
#1500
b010010 b!
0d!
#1531
b010001 b!
1d!
#1562
b010000 b!
0d!
#1593
b001111 b!
1d!
#1625
b001110 b!
0d!
#1656
b001101 b!
1d!
#1687
b001100 b!
0d!
#1718
b001011 b!
1d!
#1750
b001010 b!
0d!
#1781
b001001 b!
1d!
#1812
b001000 b!
0d!
#1843
b000111 b!
1d!
#1875
b000110 b!
0d!
#1906
b000101 b!
1d!
#1937
b000100 b!
0d!
#1968
b000011 b!
1d!
#2000
b000010 b!
0d!
#2031
b000001 b!
1d!
#2062
b000000 b!
0d!
#2093
0_!
1c!
1d!
#2125
b0000000000001 B
0F
b000000000000000000000000000000001 A!
1M!
1V!
b0001 Z!
b00010 [!
0d!
#2156
b0000000000010 B
0G
b0001 J
1K
b01 M
b0111111111111111 S
b1111111111111111 U
b000000000000000000000000000000010 A!
1G!
1d!
b0000000000001 f!
b0000000000010 g!
#2187
b0001 8
b1111 <
b0000000000011 B
b0111111111111111 E
1G
1H
b0000 J
0K
b11 M
b0000000000000000 S
b11000000000000001 T
b0110000100000011 U
1^
b01 `
b0111111111111111 8!
b000000000000000000000000000000011 A!
b0001 C!
b1111111111111 D!
b0001 N!
0d!
b0000000000010 f!
b0000000000011 g!
#2218
b0000 8
b0000000000000000 :
b0000 <
b0000000000100 B
b0000000000000000 E
0H
b00 M
b00000000000000000 T
b0110000000000000 U
0^
b11 `
b0001 a
b0111111111111111 c
1d
b0001 t
b0111111111111111 }
b1111111111111 3!
b0000000000000000 8!
b000000000000000000000000000000100 A!
b0000 C!
b0000000000000 D!
1d!
b0000000000011 f!
b0000000000100 g!
#2250
b0110000000000000 :
b0000000000101 B
b00 `
b0000 a
b0000000000000000 c
0d
b0000 t
b0000000000000000 }
b0000000000000 3!
b000000000000000000000000000000101 A!
0d!
b0000000000100 f!
b0000000000101 g!
#2281
b0000000000110 B
b0000000000001100 E
0G
b0001 J
1K
b01 M
b0000000000000001 S
b1000000000000001 U
b000000000000000000000000000000110 A!
1d!
b0000000000101 f!
b0000000000110 g!
#2312
b0001 8
b0000000000111 B
b0000000000001110 E
1H
b0010 J
b0000000000000010 S
b11111111111111111 T
b1000000000000010 U
1^
b01 `
b0000000000001100 }
b0000000000000001 8!
b000000000000000000000000000000111 A!
b0001 C!
b0000000000001 D!
0d!
b0000000000110 f!
b0000000000111 g!
#2343
b0010 8
b1111111111111111 :
b0000000001000 B
b0000000000010000 E
b0011 J
b0001 O
b0000000000000001 Q
b00000001 R
b0000000000000011 S
b1000000000000011 U
b0000000000000001 [
1\
b0001 a
b0000000000000001 c
1d
b0000000000000001 f
b0001 t
b0000000000001110 }
b0000000000001 3!
b0000000000000010 8!
b000000000000000000000000000001000 A!
b0010 C!
b0000000000010 D!
1d!
b0000000000111 f!
b0000000001000 g!
#2375
b0011 8
b0110000100000011 :
b0000000001001 B
b0000000000010010 E
b0100 J
b0010 O
b0000000000000010 Q
b00000010 R
b0000000000000100 S
b1000000000000100 U
b0000000000000010 [
b0000000000000001 _
b0010 a
b0001 b
b0000000000000010 c
b0000000000000010 g
b0010 t
b0000000000010000 }
b0000000000010 3!
b0000000000000011 8!
b000000000000000000000000000001001 A!
b0011 C!
b0000000000011 D!
0d!
b0000000001000 f!
b0000000001001 g!
#2406
b0100 8
b0110000000000000 :
b0000000001010 B
b0000000000010100 E
b0101 J
b0011 O
b0000000000000011 Q
b00000011 R
b0000000000000101 S
b1000000000000101 U
b0000000000000011 [
b0000000000000010 _
b0011 a
b0010 b
b0000000000000011 c
b0000000000000011 h
b0011 t
b0000000000010010 }
b0000000000011 3!
b0000000000000100 8!
b000000000000000000000000000001010 A!
b0100 C!
b0000000000100 D!
1d!
b0000000001001 f!
b0000000001010 g!
#2437
b0101 8
b1111 <
b0000000001011 B
b0000000000000101 E
1G
b0100 J
0K
b11 M
b0000000000000100 Q
b00000100 R
b0000000000000100 S
b0110000100000011 U
b0000000000000100 [
b0000000000000011 _
b0100 a
b0011 b
b0000000000000100 c
b0000000000000100 i
b0100 t
b0000000000010100 }
b0000000000100 3!
b0000000000000101 8!
b000000000000000000000000000001011 A!
b0101 C!
b0000000000101 D!
0d!
b0000000001010 f!
b0000000001011 g!
#2468
b0100 8
b1000000000000001 :
b0000 <
b0000000001100 B
b0000000000000100 E
b0011 J
b0010 O
b0000000000000011 Q
b00000011 R
b0000000000000011 S
b0000000000000000 [
0^
b11 `
b0101 a
b0000000000000101 c
b0101 t
b0000000000000101 }
b0000000000101 3!
b0000000000000100 8!
b000000000000000000000000000001100 A!
b0100 C!
b0000000000100 D!
1d!
b0000000001011 f!
b0000000001100 g!
#2500
b0011 8
b0110000000000000 :
b0000000001101 B
b0000000000000011 E
b0010 J
b0001 O
b0000000000000010 Q
b00000010 R
b0000000000000010 S
b0000000000000100 [
b0000000000000010 _
b0100 a
b0010 b
b0000000000000100 c
0d
b0100 t
b0000000000000100 }
b0000000000100 3!
b0000000000000011 8!
b000000000000000000000000000001101 A!
b0011 C!
b0000000000011 D!
0d!
b0000000001100 f!
b0000000001101 g!
#2531
b0010 8
b0000000001110 B
b0000000000000010 E
b0001 J
b0000 O
b0000000000000001 Q
b00000001 R
b0000000000000001 S
b0000000000000011 [
b0000000000000001 _
b0011 a
b0001 b
b0000000000000011 c
b0011 t
b0000000000000011 }
b0000000000011 3!
b0000000000000010 8!
b000000000000000000000000000001110 A!
b0010 C!
b0000000000010 D!
1d!
b0000000001101 f!
b0000000001110 g!
#2562
b0001 8
b0110000100000011 :
b0000000001111 B
b0000000000000001 E
b0000 J
b0000000000000000 Q
b00000000 R
b0000000000000000 S
b0000000000000010 [
0\
b0000000000000000 _
b0010 a
b0000 b
b0000000000000010 c
b0010 t
b0000000000000010 }
b0000000000010 3!
b0000000000000001 8!
b000000000000000000000000000001111 A!
b0001 C!
b0000000000001 D!
0d!
b0000000001110 f!
b0000000001111 g!
#2593
b0000 8
b1111111111111111 :
b0000000010000 B
b0000000000000000 E
0H
b00 M
b00000000000000000 T
b0110000000000000 U
b0000000000000001 [
b0001 a
b0000000000000001 c
b0001 t
b0000000000000001 }
b0000000000001 3!
b0000000000000000 8!
b000000000000000000000000000010000 A!
b0000 C!
b0000000000000 D!
1d!
b0000000001111 f!
b0000000010000 g!
#2625
b0110000000000000 :
b0000000010001 B
b0000000000000000 [
b00 `
b0000 a
b0000000000000000 c
b0000 t
b0000000000000000 }
b0000000000000 3!
b000000000000000000000000000010001 A!
0d!
b0000000010000 f!
b0000000010001 g!
#2656
b0000000010010 B
b000000000000000000000000000010010 A!
1d!
b0000000010001 f!
b0000000010010 g!
#2687
b0000000010011 B
b0000000000100110 E
0G
b0001 J
1K
b01 M
b0000000000000001 S
b1000000000000001 U
b000000000000000000000000000010011 A!
0d!
b0000000010010 f!
b0000000010011 g!
#2718
b0001 8
b0000000010100 B
b0000000000000001 E
1G
1H
0K
b00 M
b11111111111111111 T
b0110000000000000 U
1^
b01 `
b0000000000100110 }
b0000000000000001 8!
b000000000000000000000000000010100 A!
b0001 C!
b0000000000001 D!
1d!
b0000000010011 f!
b0000000010100 g!
#2750
b1111111111111111 :
b1111 <
b0000000010101 B
b0000 J
b11 M
b1111 O
b0000000000000000 S
b0110000100000011 U
b0000000000000001 [
1\
0^
b00 `
b0001 a
b0000000000000001 c
1d
b0001 t
b0000000000000001 }
b0000000000001 3!
b000000000000000000000000000010101 A!
0d!
b0000000010100 f!
b0000000010101 g!
#2781
b0000 8
b0000 <
b0000000000000 B
b0000000000101100 E
0G
0H
b00 M
b1110 O
b00000000000000000 T
b0000000000000000 U
b11 `
b1111 b
0d
b0000000000000000 8!
b000000000000000000000000000010110 A!
b0000 C!
b0000000000000 D!
1d!
b0000000010101 f!
b0000000010110 g!
#2812
b0110000000000000 :
b0000000000001 B
b0000000000000000 E
1G
b0110000000000000 U
b0000000000000000 [
0\
b00 `
b0000 a
b1110 b
b0000000000000000 c
b0000 t
b0000000000101100 }
b0000000000000 3!
b000000000000000000000000000010111 A!
0d!
b0000000000000 f!
b0000000000001 g!
#2843
b0000000000010 B
0G
b0001 J
1K
b01 M
b0111111111111111 S
b1111111111111111 U
b0000000000000000 }
b000000000000000000000000000011000 A!
1d!
b0000000000001 f!
b0000000000010 g!
